…
```
# A tibble: 149 x 2
# Groups:   category [149]
   category         n
   <chr>        <int>
 1 3D Printing    556
 2 Academic       706
 3 Accessories   2053
 4 Action         606
 5 Animals        218
 6 Animation     2264
 7 Anthologies    549
 8 Apparel       5478
 9 Apps          4860
10 Architecture   622
# ... with 139 more rows
```
…
Finally, we will use a linear regression model to figure out which variables are
the most significant in determining the eventual 'state' of the startup, 
whether they ended up being successful or unsuccessful.

Using these methods, we will hopefully be able to determine why certain projects
are successful while others are not and use this information to help us in the
future if we ever want to start our own companies.




```
# A tibble: 319,327 x 13
       ID name  category main_category currency deadline              goal
    <dbl> <chr> <chr>    <chr>         <chr>    <dttm>               <dbl>
 1 1.00e9 The ~ Poetry   Publishing    GBP      2015-10-09 11:36:00   1000
 2 1.00e9 Wher~ Narrati~ Film & Video  USD      2013-02-26 00:20:50  45000
 3 1.00e9 Tosh~ Music    Music         USD      2012-04-16 04:24:11   5000
 4 1.00e9 Comm~ Film & ~ Film & Video  USD      2015-08-29 01:00:00  19500
 5 1.00e9 Mona~ Restaur~ Food          USD      2016-04-01 13:38:27  50000
 6 1.00e9 Supp~ Food     Food          USD      2014-12-21 18:30:44   1000
 7 1.00e9 Chas~ Drinks   Food          USD      2016-03-17 19:05:12  25000
 8 1.00e9 SPIN~ Product~ Design        USD      2014-05-29 18:14:43 125000
 9 1.00e8 STUD~ Documen~ Film & Video  USD      2014-08-10 21:55:48  65000
10 1.00e8 Of J~ Nonfict~ Publishing    CAD      2013-10-09 18:19:37   2500
# ... with 319,317 more rows, and 6 more variables: launched <dttm>,
#   pledged <dbl>, state <chr>, backers <dbl>, country <chr>, usd_pledged <dbl>
```


```
# A tibble: 319,302 x 5
   category       main_category   goal backers usd_pledged
   <chr>          <chr>          <dbl>   <dbl>       <dbl>
 1 Poetry         Publishing      1000       0          0 
 2 Narrative Film Film & Video   45000       3        220 
 3 Music          Music           5000       1          1 
 4 Film & Video   Film & Video   19500      14       1283 
 5 Restaurants    Food           50000     224      52375 
 6 Food           Food            1000      16       1205 
 7 Drinks         Food           25000      40        453 
 8 Product Design Design        125000      58       8233 
 9 Documentary    Film & Video   65000      43       6241.
10 Nonfiction     Publishing      2500       0          0 
# ... with 319,292 more rows
```

```
# A tibble: 25 x 5
   category         main_category   goal backers usd_pledged
   <chr>            <chr>          <dbl>   <dbl>       <dbl>
 1 Technology       Technology     12000       7        14  
 2 Documentary      Film & Video   10000     177     16119. 
 3 Children's Books Publishing      5000       1        25.8
 4 Nonfiction       Publishing      4500      75      4711  
 5 Periodicals      Publishing       300       2        40  
 6 Poetry           Publishing       725       2       120  
 7 Restaurants      Food          150000    1587    179380  
 8 Rock             Music           3000      13       370  
 9 Fiction          Publishing      5000       0         0  
10 Shorts           Film & Video     200       2         0  
# ... with 15 more rows
```
…
